<?xml version="1.0" encoding="utf-8"?>
<!-- Generator: Adobe Illustrator 19.1.0, SVG Export Plug-In . SVG Version: 6.00 Build 0)  -->
<svg version="1.1" id="Layer_1" xmlns="http://www.w3.org/2000/svg" xmlns:xlink="http://www.w3.org/1999/xlink" x="0px" y="0px"
	 viewBox="0 0 18 13" style="enable-background:new 0 0 18 13;" xml:space="preserve">
<path d="M17.9,4.7l-6.5,4.2c-0.1,0-0.1,0-0.2,0c0,0-0.1,0-0.1,0c-0.1-0.1-0.2-0.1-0.2-0.3V6.2c-1,0-1.9,0-2.6,0.1
	C4.9,6.7,4,8.7,4,8.7C3.9,8.9,3.8,8.9,3.6,8.9c-0.1,0-0.2-0.1-0.2-0.3c0-4.9,6.1-5.9,7.5-6.1V0.3c0-0.1,0.1-0.2,0.2-0.3
	c0.1-0.1,0.2,0,0.3,0l6.5,4.2C18,4.3,18,4.4,18,4.5C18,4.6,18,4.7,17.9,4.7z M7.2,2.7C7.1,2.7,7,2.7,7,2.7C5.8,3.2,4.9,3.9,4.1,4.6
	C4.1,4.7,4,4.7,3.9,4.7H2.8v5.6H13V8.9c0-0.1,0-0.2,0.1-0.2l2.2-1.4c0.1-0.1,0.2-0.1,0.3,0c0.1,0.1,0.2,0.1,0.2,0.3v5.2
	c0,0.2-0.1,0.3-0.3,0.3H0.3C0.1,13,0,12.9,0,12.7V2.4c0-0.2,0.1-0.3,0.3-0.3h6.8c0.1,0,0.3,0.1,0.3,0.2C7.4,2.4,7.4,2.6,7.2,2.7
	L7.2,2.7z"/>
</svg>
