<?xml version="1.0" encoding="utf-8"?>
<!-- Generator: Adobe Illustrator 19.1.0, SVG Export Plug-In . SVG Version: 6.00 Build 0)  -->
<svg version="1.1" id="Layer_1" xmlns="http://www.w3.org/2000/svg" xmlns:xlink="http://www.w3.org/1999/xlink" x="0px" y="0px"
	 viewBox="0 0 15 15" style="enable-background:new 0 0 15 15;" xml:space="preserve">
<path d="M13.3,3.6c0,0.5-0.4,0.9-0.9,0.9h-0.9c-0.5,0-0.9-0.4-0.9-0.9V2.7c0-0.5,0.4-0.9,0.9-0.9h0.9c0.5,0,0.9,0.4,0.9,0.9V3.6
	L13.3,3.6z M13.3,12.3c0,0.5-0.5,0.9-1,0.9H2.8c-0.5,0-1-0.4-1-0.9V7.6c0-0.5,0.5-1,1-1c0,0,0.2,0,0.5,0c0,0,0.1,0,0.1,0
	c0.2,0,0.3,0.2,0.3,0.4c0,0,0,0.1,0,0.1c0,0,0,0,0,0.1c0,0.1,0,0.3,0,0.4l0,0c0,2.1,1.6,3.7,3.7,3.8c0,0-0.1,0-0.1,0c0,0,0,0,0.1,0
	c0,0,0,0,0.1,0c2.1,0,3.8-1.7,3.8-3.8c0-0.1,0-0.3,0-0.4c0,0,0,0,0-0.1c0,0,0-0.1,0-0.1c0-0.2,0.1-0.3,0.3-0.4c0,0,0.1,0,0.1,0h0.5
	c0.5,0,1,0.4,1,1V12.3L13.3,12.3z M5.6,7.6c0,0,0.2-1.9,1.9-1.9s1.9,1.9,1.9,1.9s0.1,1.9-1.9,1.9S5.6,7.6,5.6,7.6z M13.1,0H1.9
	C0.8,0,0,0.8,0,1.9v11.2c0,1,0.8,1.9,1.9,1.9h11.2c1,0,1.9-0.8,1.9-1.9V1.9C15,0.8,14.2,0,13.1,0"/>
</svg>
